A Second Course on Linear Models - 1 Basic concepts
…
present matrix notation for representing linear models;

define some terms used when discussing and analysing linear models.

1.1 Motivating example

Example 1.1 Respiration data

The following is an extract from a data set with data on 305 individuals:

library(tidyverse)
respiration <- read_table("https://oakleyj.github.io/exampledata/resp_data.txt")
respiration

# A tibble: 305 × 8
     vol exercise pulse pollution asbestos  home smoke asthma
   <dbl>    <dbl> <dbl>     <dbl>    <dbl> <dbl> <dbl>  <dbl>
 1  117.     15.8 17.5     11.9          1     1     1      0
 2  148.     23.5 28.4      1.88         1     3     1      1
 3  214.     13.8 15.0      2.38         1     1     0      0
 4  162.     15.6 15.7      6.34         1     3     0      1
 5  352.     26.6 19.7      1.63         0     4     0      0
 6  304.     23.2 14.2      2.72         0     4     0      0
 7  157.     29.0 33.7      4.03         0     1     1      0
 8  110.     16.6 14.7      1.24         1     2     1      0
 9  218.     15.1  9.16     1.14         0     2     0      0
10  246.     16.9 21.9      0.731        0     4     0      0
# ℹ 295 more rows
…
