6 Cautionary tales – A Second Course on Linear Models
…
# Fit the model will all 100 independent variables
# The Y ~ . notation is shorthand for this.
lmFull <- lm(Y ~ . , df1)

# Extract the p-values of the 100 t-tests, and arrange in ascending order
cm1 <- as_tibble(summary(lmFull)$coefficients)
colnames(cm1)[4] <- "pvalue"
cm1$variable <- paste0("beta", 0:100)
cm1 %>%
  arrange(pvalue)

# A tibble: 101 × 5
   Estimate `Std. Error` `t value`   pvalue variable
      <dbl>        <dbl>     <dbl>    <dbl> <chr>   
 1   0.124        0.0328      3.77 0.000174 beta78  
 2   0.0823       0.0341      2.41 0.0160   beta36  
 3   0.0802       0.0335      2.39 0.0169   beta33  
 4  -0.0637       0.0342     -1.86 0.0629   beta47  
 5   0.0614       0.0331      1.85 0.0640   beta70  
 6   0.0592       0.0328      1.80 0.0718   beta68  
 7   0.0597       0.0335      1.78 0.0753   beta15  
 8  -0.0569       0.0322     -1.77 0.0776   beta71  
 9   0.0587       0.0341      1.72 0.0853   beta54  
10  -0.0558       0.0326     -1.71 0.0872   beta85  
# ℹ 91 more rows
…
